…
    ## string is a valid column in 'the_expanded_df'. ✔

    ## Each unique variable in 'the_expanded_df' is associated with more than one row of data. ✔

    ## Each unique variable in 'the_expanded_df' is associated with a single default value. ✔

    ## Each unique variable in 'the_expanded_df' is associated with a single string flag ✔

    ## The value and label pairs for each unique variable in 'the_expanded_df' have the same length. ✔

``` r
expanded_dict
```

    ## # A tibble: 115 × 5
    ##    column_name      old_values new_labels     default  string
    ##    <chr>            <chr>      <chr>          <chr>     <dbl>
    ##  1 school_decision  A          Accepted       No Entry      1
    ##  2 school_decision  W          Waitlisted     No Entry      1
    ##  3 school_decision  R          Rejected       No Entry      1
    ##  4 student_decision A          Accepted Offer No Entry      1
    ##  5 student_decision D          Declined Offer No Entry      1
    ##  6 ft_pt            pt         Part-time      No Entry      1
    ##  7 ft_pt            ft         Full-time      No Entry      1
    ##  8 ft_pt            sub        Submatriculate No Entry      1
    ##  9 applied_dual_prg NODUAL     No             No Entry      1
    ## 10 applied_dual_prg YES        Yes            No Entry      1
    ## # ℹ 105 more rows
…
``` r
grad_app_recoded <-
  recode_cols(df = grad_app,
              list_of_dicts = recoding_dict,
              var_col = "column_name",
              formula_pairs_col = "formula_pairs",
              default_col = "default",
              string_col = "string")

grad_app_recoded
```

    ## # A tibble: 5,000 × 14
    ##    applicant_id email     email_preferred school_decision student_decision ft_pt
    ##           <dbl> <chr>     <chr>           <chr>           <chr>            <chr>
    ##  1          401 karin.wa… walborn_karin@… Accepted        Accepted Offer   Part…
    ##  2          386 yareli.g… <NA>            Accepted        Accepted Offer   Full…
    ##  3         2905 sulaimaa… al-demian_sula… Waitlisted      No Entry         Full…
    ##  4         3043 ryan.bur… burt_ryan@Outl… Accepted        Declined Offer   Part…
    ##  5         1546 ryan.vil… villalobos_rya… Waitlisted      No Entry         Full…
    ##  6         3861 aayid.el… el-jamal_aayid… Accepted        Accepted Offer   Full…
    ##  7          934 austin.p… poveromo_austi… Waitlisted      No Entry         Full…
    ##  8         1763 sapphire… quick_sapphire… Accepted        Accepted Offer   Full…
    ##  9         2839 franco.r… reyes_franco@y… Accepted        Declined Offer   Full…
    ## 10         2388 hamdoona… al-mohammad_ha… Rejected        No Entry         Part…
    ## # ℹ 4,990 more rows
    ## # ℹ 8 more variables: gre_verbal <dbl>, gre_quant <dbl>, gre_analytical <dbl>,
    ## #   applied_dual_prg <chr>, birth_date <chr>, gender <chr>, ethnicity <chr>,
    ## #   low_income <chr>
